tower1 Tower { stack: [ 1 ], index: 0 }
tower2 Tower { stack: [ 0 ], index: 1 }
tower3 Tower { stack: [], index: 2 }

tower1 Tower { stack: [], index: 0 }
tower2 Tower { stack: [ 0 ], index: 1 }
tower3 Tower { stack: [ 1 ], index: 2 }

tower1 Tower { stack: [], index: 0 }
tower2 Tower { stack: [], index: 1 }
tower3 Tower { stack: [ 1, 0 ], index: 2 }

Tower { stack: [], index: 0 } Tower { stack: [], index: 1 } Tower { stack: [ 1, 0 ], index: 2 }
